<?xml version="1.0" encoding="UTF-8"?>
<CustomTab xmlns="http://soap.sforce.com/2006/04/metadata">
    <label>LAIM Configuration</label>
    <mobileReady>false</mobileReady>
    <motif>Custom43: Jewel</motif>
    <page>SkienceFinSln__LAIM_MappingPage</page>
</CustomTab>
