<?xml version="1.0" encoding="UTF-8"?>
<CustomTab xmlns="http://soap.sforce.com/2006/04/metadata">
    <auraComponent>SkienceFinSln__SKSuitabilityUpdateFASelection</auraComponent>
    <label>SKSuitabilityUpdateFASelection</label>
    <mobileReady>false</mobileReady>
    <motif>Custom56: Bottle</motif>
</CustomTab>
