<?xml version="1.0" encoding="UTF-8"?>
<CustomTab xmlns="http://soap.sforce.com/2006/04/metadata">
    <auraComponent>SkienceFinSln__SKTradeBlotter</auraComponent>
    <description>Skience Trade Blotter</description>
    <label>Trade Blotter</label>
    <mobileReady>false</mobileReady>
    <motif>Custom55: Books</motif>
</CustomTab>
